{
    "name": "TerrainGenerator.Editor",
    "references": [
        "TerrainGenerator",
        "d3.d3-delaunay"
    ],
    "optionalUnityReferences": [
        "TestAssemblies"
    ],
    "includePlatforms": [],
    "excludePlatforms": [],
    "allowUnsafeCode": false
}