%YAML 1.1
%TAG !u! tag:unity3d.com,2011:
--- !u!114 &11400000
MonoBehaviour:
  m_ObjectHideFlags: 0
  m_PrefabParentObject: {fileID: 0}
  m_PrefabInternal: {fileID: 0}
  m_GameObject: {fileID: 0}
  m_Enabled: 1
  m_EditorHideFlags: 0
  m_Script: {fileID: 11500000, guid: b0475e66ac683514e9eacf251ee2559e, type: 3}
  m_Name: BiomeSet
  m_EditorClassIdentifier: 
  Biomes:
  - {fileID: 11400000, guid: 47b9c091b0169924da4d6e852de8f86a, type: 2}
  - {fileID: 11400000, guid: b1ba0abfa84ad5c42920579aa3f91a98, type: 2}
  - {fileID: 11400000, guid: c97d25bd8b541fe44ace8d6553f078ea, type: 2}
  - {fileID: 11400000, guid: b74ea842229166440bfe1b36d1577930, type: 2}
  - {fileID: 11400000, guid: abd2245e02827b84885cdab89ed5f8c1, type: 2}
  - {fileID: 11400000, guid: 7f5f8f6de08f46c4193bb77836b56f4f, type: 2}
  - {fileID: 11400000, guid: a726b37e0a0d67d4faa3f67b8b085c2c, type: 2}
  - {fileID: 11400000, guid: 18bef0caec634a542b50ba5d60f129e7, type: 2}
  - {fileID: 11400000, guid: 080d242ace94d8741830552c4477eae2, type: 2}
  EvaluationCurve:
    serializedVersion: 2
    m_Curve:
    - serializedVersion: 3
      time: 0
      value: 1
      inSlope: 0
      outSlope: 0
      tangentMode: 136
      weightedMode: 0
      inWeight: 0.33333334
      outWeight: 0.33333334
    - serializedVersion: 3
      time: 0.05
      value: 1
      inSlope: 0
      outSlope: 0
      tangentMode: 136
      weightedMode: 0
      inWeight: 0.33333334
      outWeight: 0.33333334
    - serializedVersion: 3
      time: 0.1
      value: 0.3
      inSlope: -1.0526316
      outSlope: -1.0526316
      tangentMode: 136
      weightedMode: 0
      inWeight: 0.33333334
      outWeight: 0.33333334
    - serializedVersion: 3
      time: 1
      value: 0
      inSlope: 0
      outSlope: 0
      tangentMode: 136
      weightedMode: 0
      inWeight: 0.33333334
      outWeight: 0.33333334
    m_PreInfinity: 2
    m_PostInfinity: 2
    m_RotationOrder: 4
  Ocean: {fileID: 11400000, guid: 843732ff65784344b9cfab5a5f8f078a, type: 2}
