%YAML 1.1
%TAG !u! tag:unity3d.com,2011:
--- !u!114 &11400000
MonoBehaviour:
  m_ObjectHideFlags: 0
  m_PrefabParentObject: {fileID: 0}
  m_PrefabInternal: {fileID: 0}
  m_GameObject: {fileID: 0}
  m_Enabled: 1
  m_EditorHideFlags: 0
  m_Script: {fileID: 11500000, guid: c25da15d6c439ba419a29ed0e8886f38, type: 3}
  m_Name: Ocean
  m_EditorClassIdentifier: 
  color: {r: 0.916, g: 0.8792194, b: 0.35266, a: 1}
  terrainAmplitude: 0
