%YAML 1.1
%TAG !u! tag:unity3d.com,2011:
--- !u!114 &11400000
MonoBehaviour:
  m_ObjectHideFlags: 0
  m_CorrespondingSourceObject: {fileID: 0}
  m_PrefabInternal: {fileID: 0}
  m_GameObject: {fileID: 0}
  m_Enabled: 1
  m_EditorHideFlags: 0
  m_Script: {fileID: 11500000, guid: c25da15d6c439ba419a29ed0e8886f38, type: 3}
  m_Name: Savanna
  m_EditorClassIdentifier: 
  color: {r: 0.654902, g: 0.6117647, b: 0, a: 1}
  meanRainfall: 0.5
  meanTemperature: 0.7
  structureDefinitions:
  - chance: 0.001
    densityRadius: 8
    structure: {fileID: 11400000, guid: c1111b6d72313e44097e36b015ba8ca2, type: 2}
  - chance: 0.001
    densityRadius: 8
    structure: {fileID: 11400000, guid: 7e61c53795cb65e45a913be5638ef6e4, type: 2}
  - chance: 0.001
    densityRadius: 8
    structure: {fileID: 11400000, guid: 426b2a7c0aa111348880c4a9c6107ddd, type: 2}
  terrainAmplitude: 5
