%YAML 1.1
%TAG !u! tag:unity3d.com,2011:
--- !u!1045 &1
EditorBuildSettings:
  m_ObjectHideFlags: 0
  serializedVersion: 2
  m_Scenes:
  - enabled: 1
    path: Assets/Scenes/Main Menu.unity
    guid: f2236068052c4604483efc278891412c
  - enabled: 1
    path: Assets/Scenes/Sample.unity
    guid: 19e2c107c9276c84f8b329f65bc65812
  m_configObjects: {}
