%YAML 1.1
%TAG !u! tag:unity3d.com,2011:
--- !u!1001 &100100000
Prefab:
  m_ObjectHideFlags: 1
  serializedVersion: 2
  m_Modification:
    m_TransformParent: {fileID: 0}
    m_Modifications: []
    m_RemovedComponents: []
  m_ParentPrefab: {fileID: 0}
  m_RootGameObject: {fileID: 1787432588683412}
  m_IsPrefabParent: 1
--- !u!1 &1787432588683412
GameObject:
  m_ObjectHideFlags: 0
  m_PrefabParentObject: {fileID: 0}
  m_PrefabInternal: {fileID: 100100000}
  serializedVersion: 5
  m_Component:
  - component: {fileID: 4752371763659456}
  - component: {fileID: 114959293617241150}
  m_Layer: 0
  m_Name: Noise Generator
  m_TagString: Untagged
  m_Icon: {fileID: 0}
  m_NavMeshLayer: 0
  m_StaticEditorFlags: 0
  m_IsActive: 1
--- !u!4 &4752371763659456
Transform:
  m_ObjectHideFlags: 1
  m_PrefabParentObject: {fileID: 0}
  m_PrefabInternal: {fileID: 100100000}
  m_GameObject: {fileID: 1787432588683412}
  m_LocalRotation: {x: -0, y: -0, z: -0, w: 1}
  m_LocalPosition: {x: 0, y: 0, z: 0}
  m_LocalScale: {x: 1, y: 1, z: 1}
  m_Children: []
  m_Father: {fileID: 0}
  m_RootOrder: 0
  m_LocalEulerAnglesHint: {x: 0, y: 0, z: 0}
--- !u!114 &114959293617241150
MonoBehaviour:
  m_ObjectHideFlags: 1
  m_PrefabParentObject: {fileID: 0}
  m_PrefabInternal: {fileID: 100100000}
  m_GameObject: {fileID: 1787432588683412}
  m_Enabled: 1
  m_EditorHideFlags: 0
  m_Script: {fileID: 11500000, guid: c7c0178010cb19942b512736f46325c2, type: 3}
  m_Name: 
  m_EditorClassIdentifier: 
  config:
    Amplitude: 250
    BiomeSet: {fileID: 11400000, guid: 5b3cac761a5102745b84cd8f5aed1063, type: 2}
    ClassNoise: {fileID: 11400000, guid: 9bf62a080da9bd34586ebc36bb3fe470, type: 2}
    ClassNoiseLayer: {fileID: 11400000, guid: 272ccd81e1ff3ff4d80761b8504d813a, type: 2}
    GlobalNoiseLayer: {fileID: 11400000, guid: 6a6dc7693761a0748b0ff8fdd0da8f87, type: 2}
    HeightNoise: {fileID: 11400000, guid: 0152e7871b3d60e4198dd12dac8c8a0d, type: 2}
    HumidityNoise: {fileID: 11400000, guid: 66ba42107e2edef4a821f457c596d27b, type: 2}
    LocalNoiseLayer: {fileID: 11400000, guid: f4147d83deb480744925982029abef56, type: 2}
    RainfallNoise: {fileID: 11400000, guid: f6fccf6477442894b85a9efde82c0857, type: 2}
    TemperatureNoise: {fileID: 11400000, guid: 2f901741b41615f499a6acd75e28acb0, type: 2}
