%YAML 1.1
%TAG !u! tag:unity3d.com,2011:
--- !u!114 &11400000
MonoBehaviour:
  m_ObjectHideFlags: 0
  m_PrefabParentObject: {fileID: 0}
  m_PrefabInternal: {fileID: 0}
  m_GameObject: {fileID: 0}
  m_Enabled: 1
  m_EditorHideFlags: 0
  m_Script: {fileID: 11500000, guid: 36cedb22ea4967d48bab98d0ee2a1c40, type: 3}
  m_Name: Humidity
  m_EditorClassIdentifier: 
  absolute: 0
  octaves: 3
  persistence: 0.95
